Lab_1/Part I/simulation/qsim/Part_I.msim.vcd
$comment
	File created using the following command:
		vcd file Part_I.msim.vcd -direction
$end
$date
	Sun Sep 15 16:19:24 2019
$end
$version
	ModelSim Version 10.5b
$end
$timescale
	1ps
$end

$scope module Part_I_vlg_vec_tst $end
$var reg 1 ! x $end
$var reg 1 " y $end
$var reg 1 # z $end
$var wire 1 $ f $end

$scope module i1 $end
$var wire 1 % gnd $end
$var wire 1 & vcc $end
$var wire 1 ' unknown $end
$var tri1 1 ( devclrn $end
$var tri1 1 ) devpor $end
$var tri1 1 * devoe $end
$var wire 1 + ~QUARTUS_CREATED_GND~I_combout $end
$var wire 1 , x~input_o $end
$var wire 1 - z~input_o $end
$var wire 1 . y~input_o $end
$var wire 1 / inst3~0_combout $end
$upscope $end
$upscope $end
$enddefinitions $end
#0
$dumpvars
0!
0"
0#
0$
0%
1&
x'
1(
1)
1*
0+
0,
0-
0.
0/
$end
#1000000
1!
1,
#2000000
1"
0!
1.
0,
#3000000
1!
1,
1/
1$
#4000000
1#
0"
0!
1-
0.
0,
#5000000
1!
1,
#6000000
1"
0!
1.
0,
0/
0$
#7000000
1!
1,
1/
1$
